complete_developer_guide
…
print(result)
#> # A tibble: 80 x 5
#>    region  quarter total_revenue avg_order n_orders
#>    <chr>     <dbl>         <dbl>     <dbl>    <int>
#>  1 West          4    1234567890      45.2  2345678
#>  2 East          4    1198765432      42.1  2234567
#> # ... with 78 more rows
…
